{
  "schema": "1.0",
  "type": "whmcs-addons",
  "name": "sms_center",
  "license": "proprietary",
  "category": "notifications",
  "description": {
    "name": "SMS Center",
    "tagline": "Send text messages to staff and clients using over 30 gateways, create SMS templates and enable two-factor authentication.",
    "long": "SMS Center For WHMCS has been designed to let you send text messages to both your clients and staff members right from within your WHMCS. The module features support for 34 SMS gateways, including the world’s favorite Twilio, Clickatell and FastSMS. With it, you will be allowed to verify new customers and orders, as well as establish two-factor authentication to access your system.\nOur module will empower you to create easily editable SMS templates that correspond to specific WHMCS email templates, both default and custom ones. You will be able to send single text messages as well, simply through picking a customer or typing in any number manually. What is more, SMS Center For WHMCS will allow you to text your administrators upon specific events, e.g. when important tickets are opened. As another option, you can design templates for mass SMS messages and send them whenever you choose, following the adjustable recipient filtering. If needed, you will be allowed to regulate multiple configurations under every active SMS gateway, each dedicated to a different group of countries.",
    "features": [

    ]
  },
  "logo": {
    "filename": "logo.png"
  },
  "marketplace": {
    "url": "https:\/\/marketplace.whmcs.com\/product\/1462"
  },
  "support": {
    "docs_url": "https:\/\/docs.modulesgarden.com\/SMS_Center_For_WHMCS"
  },
  "authors": [
    {
      "name": "ModulesGarden",
      "homepage": "https:\/\/www.modulesgarden.com\/"
    }
  ]
}