{
  "schema": "1.0",
  "type": "whmcs-addons",
  "name": "sms_center",
  "license": "proprietary",
  "category": "security",
  "description": {
    "name": "SMS Center Two-Factor Authentication",
    "tagline": "SMS Center Two-Factor Authentication allows you to get your security code through the SMS message to log in.",
    "long": "Two-factor authentication adds an additional layer of security by adding a second step to your login. It takes something you know (e.g. password) and adds a second factor, typically something you have (such as your phone). Since both are required to log in, even if an attacker has your password they cannot access your account. So, two-factor authentication gives you additional security because your password alone no longer allows access to your account.",
    "features": [

    ]
  },
  "logo": {
    "filename": "logo.png"
  },
  "marketplace": {
    "url": "https:\/\/marketplace.whmcs.com\/product\/1462"
  },
  "support": {
    "docs_url": "https:\/\/docs.modulesgarden.com\/SMS_Center_For_WHMCS"
  },
  "authors": [
    {
      "name": "ModulesGarden",
      "homepage": "https:\/\/www.modulesgarden.com\/"
    }
  ]
}