{

    "schema": "1.0",
    "type": "whmcs-provisioning",
    "name": "PleskExtended",
    "license": "proprietary",
    "category": "webhosting",
    "description": {
        "name": "Plesk Extended",
        "tagline": "Supply web hosting accounts to your clients and bring in various options for their management.",
        "short": "Supply web hosting accounts to your clients and bring in various options for their management.",
        "long": "Plesk Extended For WHMCS will let you automate the provisioning of web hosting accounts and supply your clients with a whole range of tools for their proficient handling at the same time. Thanks to it, the complete mechanism of accounts management is fully optimized and takes place nowhere else but inside your system.With this very module, your clients will be allowed to remotely manage their FTP accounts, backups, databases, mailboxes, spam filters, DNS settings and plenty other aspects. The bulk of their chores will be streamlined to the max thanks to the mass actions feature. Customers will be also offered the choice between Softaculous, Installatron and Plesk Application Installer to perform the installation of all favorite applications in just a few clicks. Moreover, you will be free to either select the applications ready for your clients' use instantly after the account creation or let them have their pick during the ordering process. Leaving your website will be no longer a must for your customers to handle the applications as well as their backups! As an administrator, you will be able to set up and customize ready to sell products directly in your WHMCS. With a vast array of options at hand, you will dynamically adapt your offerings to ever-changing needs on the market and define which functionalities should be available in your client area."},
    "logo": {
        "filename": "logo.png"
    },
    "support": {
        "homepage": "https://www.modulesgarden.com/products/whmcs/plesk-extended",
        "learn_more": "https://www.modulesgarden.com/products/whmcs/plesk-extended#features",
        "support_url": "https://www.modulesgarden.com/support",
        "docs_url": "https://www.docs.modulesgarden.com/Plesk_Extended_For_WHMCS"
    },
    "authors": [
        {
            "name": "ModulesGarden",
            "homepage": "https://www.modulesgarden.com/"
        }
    ]


}